\relax 
\citation{DOGrules1}
\citation{DOGrules2}
\citation{BluetoothServerSocket}
\citation{BluetoothLE}
\select@language{english}
\@writefile{toc}{\select@language{english}}
\@writefile{lof}{\select@language{english}}
\@writefile{lot}{\select@language{english}}
\@writefile{toc}{\contentsline {section}{\numberline {1}Introduction}{\thepage }}
\newlabel{fig:endScreen}{{1}{\thepage }}
\@writefile{lof}{\contentsline {figure}{\numberline {1}{\ignorespaces Board setup at game end}}{\thepage }}
\@writefile{toc}{\contentsline {section}{\numberline {2}Communication}{\thepage }}
\@writefile{toc}{\contentsline {subsection}{\numberline {2.1}Overview}{\thepage }}
\@writefile{toc}{\contentsline {subsection}{\numberline {2.2}Implementation}{\thepage }}
\@writefile{toc}{\contentsline {subsection}{\numberline {2.3}Issues}{\thepage }}
\newlabel{Issues}{{2.3}{\thepage }}
\@writefile{toc}{\contentsline {section}{\numberline {3}Server}{\thepage }}
\@writefile{toc}{\contentsline {subsection}{\numberline {3.1}Class hierarchy}{\thepage }}
\@writefile{toc}{\contentsline {subsection}{\numberline {3.2}Communication Interface}{\thepage }}
\newlabel{fig:seven}{{3.2}{\thepage }}
\@writefile{lof}{\contentsline {figure}{\numberline {2}{\ignorespaces Playing a seven card}}{\thepage }}
\@writefile{toc}{\contentsline {subsection}{\numberline {3.3}Graphics}{\thepage }}
\citation{LruCache}
\citation{gridview}
\newlabel{fig:playerEdge}{{3.3}{\thepage }}
\@writefile{lof}{\contentsline {figure}{\numberline {3}{\ignorespaces Construction of a quarter of the board}}{\thepage }}
\@writefile{toc}{\contentsline {section}{\numberline {4}Client}{\thepage }}
\@writefile{toc}{\contentsline {subsection}{\numberline {4.1}Entering a game}{\thepage }}
\newlabel{fig:gameSetup}{{4.1}{\thepage }}
\@writefile{lof}{\contentsline {figure}{\numberline {4}{\ignorespaces Setting up the player}}{\thepage }}
\@writefile{toc}{\contentsline {subsection}{\numberline {4.2}Game logic}{\thepage }}
\newlabel{fig:pickingPartner}{{4.1}{\thepage }}
\@writefile{lof}{\contentsline {figure}{\numberline {5}{\ignorespaces Picking partners in the game lobby}}{\thepage }}
\@writefile{toc}{\contentsline {subsection}{\numberline {4.3}Graphics}{\thepage }}
\@writefile{toc}{\contentsline {subsubsection}{\numberline {4.3.1}Displaying the hand}{\thepage }}
\newlabel{fig:yourTurnBlocked4}{{4.3.1}{\thepage }}
\@writefile{lof}{\contentsline {figure}{\numberline {6}{\ignorespaces The hand cards with a blocked 4.}}{\thepage }}
\@writefile{toc}{\contentsline {subsubsection}{\numberline {4.3.2}Listing all cards for the joker}{\thepage }}
\bibstyle{abbrv}
\bibdata{report}
\bibcite{BluetoothLE}{1}
\bibcite{BluetoothServerSocket}{2}
\bibcite{gridview}{3}
\bibcite{LruCache}{4}
\bibcite{DOGrules1}{5}
\bibcite{DOGrules2}{6}
\@writefile{toc}{\contentsline {subsection}{\numberline {4.4}Game over}{\thepage }}
\newlabel{fig:gameOver}{{4.4}{\thepage }}
\@writefile{lof}{\contentsline {figure}{\numberline {7}{\ignorespaces Message when the game has ended and this player's team has lost.}}{\thepage }}
\@writefile{toc}{\contentsline {section}{\numberline {5}Enhancements}{\thepage }}
\@writefile{toc}{\contentsline {section}{\numberline {6}Testing}{\thepage }}
\@writefile{toc}{\contentsline {subsection}{\numberline {6.1}Communication}{\thepage }}
\@writefile{toc}{\contentsline {subsection}{\numberline {6.2}Server}{\thepage }}
\@writefile{toc}{\contentsline {subsection}{\numberline {6.3}Client}{\thepage }}
\@writefile{toc}{\contentsline {section}{\numberline {7}Conclusion}{\thepage }}
\@writefile{toc}{\contentsline {section}{\numberline {8}References}{\thepage }}
